speech index data — spidx • presidentSpeech
…
titletitle

datedate

linklink

    Source

    http://www.pa.go.kr/research/contents/speech/index.jsp

    Examples

  spidx

#> # A tibble: 7,173 × 6
#>    president field  event       title                date    link               
#>    <chr>     <chr>  <chr>       <chr>                <chr>   <chr>              
#>  1 이승만    연설문 취임사      "대통령 취임사(大統… 1948.0… https://www.pa.go.…
#>  2 이승만    연설문 성명/담화문 "민족이 원하는 길을… 1948.0… https://www.pa.go.…
#>  3 이승만    연설문 기타        "미급점(未及點) 육…  1948.0… https://www.pa.go.…
#>  4 이승만    연설문 성명/담화문 "전민족에게 충고함 " 1948.0… https://www.pa.go.…
#>  5 이승만    연설문 성명/담화문 "대한민국 정부수립…  1948.0… https://www.pa.go.…
#>  6 이승만    연설문 기념사      "함께 뭉쳐서 자강전… 1948.0… https://www.pa.go.…
#>  7 이승만    연설문 성명/담화문 "정권 이양문제에 대… 1948.0… https://www.pa.go.…
#>  8 이승만    연설문 성명/담화문 "북한정권(北韓政權)… 1948.0… https://www.pa.go.…
#>  9 이승만    연설문 성명/담화문 "미소(美蘇) 양군 철… 1948.0… https://www.pa.go.…
#> 10 이승만    연설문 성명/담화문 "반민자(反民者) 처…  1948.0… https://www.pa.go.…
#> # … with 7,163 more rows
…
